country,n_medals_pred
afghanistan,1.1571592
albania,5.4473677
algeria,3.5058403
angola,1.7415922
antigua_and_barbuda,2.6071134
argentina,21.932592
armenia,5.4473677
australia,15.973243
austria,9.676079
azerbaijan,15.021658
"bahamas,_the",1.985311
bangladesh,37.316933
barbados,0.9512113
belarus,12.202286
belgium,8.695625
belize,1.0614071
benin,2.3093007
bhutan,0.6856374
bolivia,4.811982
bosnia_and_herzegovina,5.4473677
botswana,0.7542649
brazil,88.64111
brunei_darussalam,1.2876654
bulgaria,12.202286
burkina_faso,2.3093007
burundi,1.2541633
cabo_verde,1.0984917
cambodia,6.554037
cameroon,2.1197739
canada,17.35011
central_african_republic,2.326499
chad,1.2229097
chile,9.37827
china,100.02161
colombia,13.192062
comoros,0.5621761
"congo,_dem._rep.",6.923325
"congo,_rep.",0.79856586
costa_rica,16.897942
cote_d'ivoire,2.1197739
croatia,8.181152
cyprus,3.0023832
czech_republic,9.676079
denmark,9.676079
djibouti,1.2943856
dominica,0.9512113
dominican_republic,15.021658
ecuador,5.017146
"egypt,_arab_rep.",7.024167
el_salvador,6.186244
equatorial_guinea,0.35081968
estonia,2.8519597
eswatini,1.985311
ethiopia,2.3240132
fiji,1.985311
finland,9.676079
france,32.698326
gabon,0.8507893
"gambia,_the",1.0490623
georgia,5.4473677
germany,56.43831
ghana,2.1197739
greece,10.8185005
grenada,1.2530003
guatemala,8.09366
guinea,1.5554254
guinea-bissau,0.5621761
guyana,1.611028
haiti,6.7170525
honduras,4.099057
"hong_kong_sar,_china",13.257771
hungary,14.207099
iceland,0.981642
india,38.901344
indonesia,38.901344
"iran,_islamic_rep.",27.82612
iraq,2.1545043
ireland,11.824194
israel,11.034657
italy,32.698326
jamaica,5.4473677
jordan,2.558072
kazakhstan,8.628571
kenya,2.4341917
kiribati,0.8079655
"korea,_rep.",32.698326
kosovo,1.2530003
kyrgyz_republic,2.0041175
lao_pdr,4.099057
latvia,2.8519597
lebanon,7.9424515
lesotho,1.985311
liberia,0.8617403
libya,6.554037
lithuania,10.498344
luxembourg,1.7331381
madagascar,0.87930197
malawi,1.0280204
malaysia,13.759483
maldives,1.039284
mali,1.408609
malta,0.8507893
mauritania,0.4983797
mauritius,1.2530003
mexico,42.003872
moldova,3.6049898
mongolia,7.3804607
montenegro,1.2530003
morocco,3.9180565
mozambique,1.408609
myanmar,33.5553
namibia,2.326499
nepal,9.8378105
netherlands,28.429428
new_zealand,1.9676924
nicaragua,5.52315
niger,1.408609
nigeria,4.4014077
north_macedonia,1.895611
norway,7.990267
pakistan,6.1843567
panama,5.2882204
papua_new_guinea,5.591447
paraguay,4.811982
peru,11.034657
philippines,27.777792
poland,9.676079
portugal,9.676079
puerto_rico,6.658909
qatar,3.4135509
romania,9.676079
russian_federation,56.43831
rwanda,0.58102196
samoa,1.4778541
sao_tome_and_principe,2.122193
saudi_arabia,17.5714
senegal,1.408609
serbia,15.640747
seychelles,1.2876654
sierra_leone,1.2229097
singapore,12.142591
slovak_republic,9.948953
slovenia,2.5612178
solomon_islands,0.35081968
somalia,0.58102196
south_africa,12.141161
spain,65.08128
sri_lanka,14.285902
st._kitts_and_nevis,2.6071134
st._lucia,1.2530003
st._vincent_and_the_grenadines,0.9512113
sudan,2.144888
suriname,1.985311
sweden,15.631293
switzerland,19.98172
tajikistan,0.58102196
tanzania,1.8679059
thailand,22.706013
timor-leste,1.449428
togo,0.93094003
trinidad_and_tobago,1.4392667
tunisia,16.810825
turkey,56.194176
turks_and_caicos_islands,1.3267522
tuvalu,0.63039273
uganda,1.8679059
ukraine,23.337831
united_kingdom,38.35304
united_states,40.248936
uruguay,10.741989
uzbekistan,10.608612
vanuatu,0.35081968
vietnam,37.316933
west_bank_and_gaza,3.4205499
zambia,1.1571592
zimbabwe,7.0693574
